Lightning talk • lubridate
…
---
# Get into a `date` or `datetime` format

```r
bike_traffic <- 
  bike_traffic %>%
  mutate(timestamp = `mdy_hms`(date,
                             tz = "US/Pacific"))
```

--

```
## # A tibble: 85,810 × 4
##    timestamp           direction crossing           bike_count
##    <dttm>              <fct>     <fct>                   <int>
##  1 2019-02-28 23:00:00 North     Burke Gilman Trail          0
##  2 2019-02-28 22:00:00 North     Burke Gilman Trail          0
##  3 2019-02-28 21:00:00 North     Burke Gilman Trail          2
##  4 2019-02-28 20:00:00 North     Burke Gilman Trail          2
##  5 2019-02-28 19:00:00 North     Burke Gilman Trail          6
##  6 2019-02-28 18:00:00 North     Burke Gilman Trail         13
##  7 2019-02-28 17:00:00 North     Burke Gilman Trail         19
##  8 2019-02-28 16:00:00 North     Burke Gilman Trail         26
##  9 2019-02-28 15:00:00 North     Burke Gilman Trail         25
## 10 2019-02-28 14:00:00 North     Burke Gilman Trail         22
## # … with 85,800 more rows
```
…
```
## [1] "2015-09-07"
```

---

# Get into a `date` or `datetime` format

```r
bike_traffic
```

```
## # A tibble: 85,810 × 4
##    timestamp           direction crossing           bike_count
##    <dttm>              <fct>     <fct>                   <int>
##  1 2019-02-28 23:00:00 North     Burke Gilman Trail          0
##  2 2019-02-28 22:00:00 North     Burke Gilman Trail          0
##  3 2019-02-28 21:00:00 North     Burke Gilman Trail          2
##  4 2019-02-28 20:00:00 North     Burke Gilman Trail          2
##  5 2019-02-28 19:00:00 North     Burke Gilman Trail          6
##  6 2019-02-28 18:00:00 North     Burke Gilman Trail         13
##  7 2019-02-28 17:00:00 North     Burke Gilman Trail         19
##  8 2019-02-28 16:00:00 North     Burke Gilman Trail         26
##  9 2019-02-28 15:00:00 North     Burke Gilman Trail         25
## 10 2019-02-28 14:00:00 North     Burke Gilman Trail         22
## # … with 85,800 more rows
```
…
--

```r
bike_traffic %>%
  filter(`timestamp %within% date_interval`)
```

---
# Time Intervals

```
## # A tibble: 674 × 4
##    timestamp           direction crossing           bike_count
##    <dttm>              <fct>     <fct>                   <int>
##  1 2015-09-13 17:00:00 North     Burke Gilman Trail         33
##  2 2015-09-13 16:00:00 North     Burke Gilman Trail         44
##  3 2015-09-13 15:00:00 North     Burke Gilman Trail         50
##  4 2015-09-13 14:00:00 North     Burke Gilman Trail         30
##  5 2015-09-13 13:00:00 North     Burke Gilman Trail         30
##  6 2015-09-13 12:00:00 North     Burke Gilman Trail         33
##  7 2015-09-13 11:00:00 North     Burke Gilman Trail         90
##  8 2015-09-13 10:00:00 North     Burke Gilman Trail        149
##  9 2015-09-13 09:00:00 North     Burke Gilman Trail         35
## 10 2015-09-13 08:00:00 North     Burke Gilman Trail         16
## # … with 664 more rows
```
…
