Recode variables with if_else() and case_when()
…
* Recoding data using two logical conditions with `if_else()`
* Recoding a variable using multiple conditions with `case_when()`

By the end of this lesson, you should be able to complete your milestone recreation using the hotels dataset. 

---

# `patients` dataset

```r
patients
```

```
## # A tibble: 30 × 7
##       id   age sex      bmi glucose sys_bp dias_bp
##    <dbl> <dbl> <chr>  <dbl>   <dbl>  <dbl>   <dbl>
##  1     1    39 female  32.4     124    106      72
##  2     2    34 female  25.9      79    108      78
##  3     3    18 male    27.0      73    126      64
##  4     4    47 male    23.6     114    126      82
##  5     5    30 female  19.4      89    100      72
##  6     6    69 female  27.2     165    114      60
##  7     7    16 female  20.3      81     88      52
##  8     8    80 female  29.7     112    136      60
##  9     9    37 male    28.9     135    102      70
## 10    10    59 male    25.4     104    122      78
## # … with 20 more rows
```
…
---
class: your-turn

# Review `mutate()`

```r
patients %>% 
  mutate(
    pulse_pressure = sys_bp - dias_bp
  )
```

```
## # A tibble: 30 × 8
##       id   age sex      bmi glucose sys_bp dias_bp pulse_pressure
##    <dbl> <dbl> <chr>  <dbl>   <dbl>  <dbl>   <dbl>          <dbl>
##  1     1    39 female  32.4     124    106      72             34
##  2     2    34 female  25.9      79    108      78             30
##  3     3    18 male    27.0      73    126      64             62
##  4     4    47 male    23.6     114    126      82             44
##  5     5    30 female  19.4      89    100      72             28
##  6     6    69 female  27.2     165    114      60             54
##  7     7    16 female  20.3      81     88      52             36
##  8     8    80 female  29.7     112    136      60             76
##  9     9    37 male    28.9     135    102      70             32
## 10    10    59 male    25.4     104    122      78             44
## # … with 20 more rows
```
…
Next we'll add the value our variable should take if the condition is `true`.

---

# Recoding with `if_else()`

```r
patients %>% 
  mutate(
    sex_recode = if_else(sex == "male", true = 0, false = 1)
  )
```

```
## # A tibble: 30 × 8
##       id   age sex      bmi glucose sys_bp dias_bp sex_recode
##    <dbl> <dbl> <chr>  <dbl>   <dbl>  <dbl>   <dbl>      <dbl>
##  1     1    39 female  32.4     124    106      72          1
##  2     2    34 female  25.9      79    108      78          1
##  3     3    18 male    27.0      73    126      64          0
##  4     4    47 male    23.6     114    126      82          0
##  5     5    30 female  19.4      89    100      72          1
##  6     6    69 female  27.2     165    114      60          1
##  7     7    16 female  20.3      81     88      52          1
##  8     8    80 female  29.7     112    136      60          1
##  9     9    37 male    28.9     135    102      70          0
## 10    10    59 male    25.4     104    122      78          0
## # … with 20 more rows
```
…
---
class: your-turn

# Your turn #1

```r
patients %>% 
  mutate(
    sys_status = if_else(sys_bp >= 130, "high", "normal")
  )
```

```
## # A tibble: 30 × 8
##       id   age sex      bmi glucose sys_bp dias_bp sys_status
##    <dbl> <dbl> <chr>  <dbl>   <dbl>  <dbl>   <dbl> <chr>     
##  1     1    39 female  32.4     124    106      72 normal    
##  2     2    34 female  25.9      79    108      78 normal    
##  3     3    18 male    27.0      73    126      64 normal    
##  4     4    47 male    23.6     114    126      82 normal    
##  5     5    30 female  19.4      89    100      72 normal    
##  6     6    69 female  27.2     165    114      60 normal    
##  7     7    16 female  20.3      81     88      52 normal    
##  8     8    80 female  29.7     112    136      60 high      
##  9     9    37 male    28.9     135    102      70 normal    
## 10    10    59 male    25.4     104    122      78 normal    
## # … with 20 more rows
```
…
# Your turn #2

```r
patients_interventions %>% 
  mutate(
    bmi_predict = if_else(
      intervene == "yes", 
      bmi * 0.90, 
      bmi
    )
  )
```

```
## # A tibble: 30 × 9
##       id   age sex      bmi glucose sys_bp dias_bp intervene bmi_predict
##    <dbl> <dbl> <chr>  <dbl>   <dbl>  <dbl>   <dbl> <chr>           <dbl>
##  1     1    39 female  32.4     124    106      72 no               32.4
##  2     2    34 female  25.9      79    108      78 no               25.9
##  3     3    18 male    27.0      73    126      64 no               27.0
##  4     4    47 male    23.6     114    126      82 no               23.6
##  5     5    30 female  19.4      89    100      72 no               19.4
##  6     6    69 female  27.2     165    114      60 yes              24.4
##  7     7    16 female  20.3      81     88      52 no               20.3
##  8     8    80 female  29.7     112    136      60 no               29.7
##  9     9    37 male    28.9     135    102      70 no               28.9
## 10    10    59 male    25.4     104    122      78 no               25.4
## # … with 20 more rows
```
…
```
## # A tibble: 30 × 8
##       id   age sex      bmi glucose sys_bp dias_bp sys_bp_status
##    <dbl> <dbl> <chr>  <dbl>   <dbl>  <dbl>   <dbl> <chr>        
##  1     1    39 female  32.4     124    106      72 normal       
##  2     2    34 female  25.9      79    108      78 normal       
##  3     3    18 male    27.0      73    126      64 elevated     
##  4     4    47 male    23.6     114    126      82 elevated     
##  5     5    30 female  19.4      89    100      72 normal       
##  6     6    69 female  27.2     165    114      60 normal       
##  7     7    16 female  20.3      81     88      52 normal       
##  8     8    80 female  29.7     112    136      60 stage 1      
##  9     9    37 male    28.9     135    102      70 normal       
## 10    10    59 male    25.4     104    122      78 elevated     
## # … with 20 more rows
```
…
```r
patients %>% 
  mutate(
    sys_bp_status = case_when(
      sys_bp >= 140           ~ "stage 2",
      sys_bp >= 130 & sys_bp  ~ "stage 1",
      sys_bp >= 120 & sys_bp  ~ "elevated",
      sys_bp < 120            ~ "normal"
    )
  )
```

```
## # A tibble: 30 × 8
##       id   age sex      bmi glucose sys_bp dias_bp sys_bp_status
##    <dbl> <dbl> <chr>  <dbl>   <dbl>  <dbl>   <dbl> <chr>        
##  1     1    39 female  32.4     124    106      72 normal       
##  2     2    34 female  25.9      79    108      78 normal       
##  3     3    18 male    27.0      73    126      64 elevated     
##  4     4    47 male    23.6     114    126      82 elevated     
##  5     5    30 female  19.4      89    100      72 normal       
##  6     6    69 female  27.2     165    114      60 normal       
##  7     7    16 female  20.3      81     88      52 normal       
##  8     8    80 female  29.7     112    136      60 stage 1      
##  9     9    37 male    28.9     135    102      70 normal       
## 10    10    59 male    25.4     104    122      78 elevated     
## # … with 20 more rows
```
…
# Your turn #4

```r
patients_2 %>% 
  mutate(
     followup = case_when(
       diabetes_status == "diabetic" & bmi >= 30 ~ 1, 
       diabetes_status == "pre-diabetic" & bmi >= 30 ~ 1.5,
       TRUE ~ 2,
    )
  )
```

```
## # A tibble: 30 × 9
##       id   age sex      bmi glucose sys_bp dias_bp diabetes_status followup
##    <dbl> <dbl> <chr>  <dbl>   <dbl>  <dbl>   <dbl> <chr>              <dbl>
##  1     1    39 female  32.4     124    106      72 pre-diabetic         1.5
##  2     2    34 female  25.9      79    108      78 non-diabetic         2  
##  3     3    18 male    27.0      73    126      64 non-diabetic         2  
##  4     4    47 male    23.6     114    126      82 pre-diabetic         2  
##  5     5    30 female  19.4      89    100      72 non-diabetic         2  
##  6     6    69 female  27.2     165    114      60 diabetic             2  
##  7     7    16 female  20.3      81     88      52 non-diabetic         2  
##  8     8    80 female  29.7     112    136      60 pre-diabetic         2  
##  9     9    37 male    28.9     135    102      70 diabetic             2  
## 10    10    59 male    25.4     104    122      78 pre-diabetic         2  
## # … with 20 more rows
```
…
# Your turn #5

```r
patients_2 %>% 
  mutate(
    followup = case_when(
      diabetes_status == "diabetic" ~ 1, 
      diabetes_status == "pre-diabetic" ~ 1.5,
      TRUE ~ NA_real_,
    )
  )
```

```
## # A tibble: 30 × 9
##       id   age sex      bmi glucose sys_bp dias_bp diabetes_status followup
##    <dbl> <dbl> <chr>  <dbl>   <dbl>  <dbl>   <dbl> <chr>              <dbl>
##  1     1    39 female  32.4     124    106      72 pre-diabetic         1.5
##  2     2    34 female  25.9      79    108      78 non-diabetic        NA  
##  3     3    18 male    27.0      73    126      64 non-diabetic        NA  
##  4     4    47 male    23.6     114    126      82 pre-diabetic         1.5
##  5     5    30 female  19.4      89    100      72 non-diabetic        NA  
##  6     6    69 female  27.2     165    114      60 diabetic             1  
##  7     7    16 female  20.3      81     88      52 non-diabetic        NA  
##  8     8    80 female  29.7     112    136      60 pre-diabetic         1.5
##  9     9    37 male    28.9     135    102      70 diabetic             1  
## 10    10    59 male    25.4     104    122      78 pre-diabetic         1.5
## # … with 20 more rows
```
…
