Session 1 Review
…
Show Solution.

Static or live code in box?

---

1.1 What is the earliest year on record in this dataset? Latest?

```r
outbreaks %>%
  arrange(year)
```

```
## # A tibble: 57,649 × 21
##     year month state      primary_mode etiology serotype_or_gen… etiology_status
##    <dbl> <dbl> <chr>      <chr>        <chr>    <chr>            <chr>          
##  1  1971    11 Alaska     Water        Shigell… <NA>             Confirmed      
##  2  1971     6 Alabama    Water        Selenium <NA>             Confirmed      
##  3  1971     6 Arkansas   Water        Hepatit… <NA>             Confirmed      
##  4  1971     2 California Water        Copper   <NA>             Confirmed      
##  5  1971     7 California Water        Unknown  <NA>             Suspected      
##  6  1971    12 California Water        Unknown  <NA>             Suspected      
##  7  1971     7 Kentucky   Water        Unknown  <NA>             Suspected      
##  8  1971     6 Missouri   Water        Unknown  <NA>             Suspected      
##  9  1971     7 Mississip… Water        Shigell… <NA>             Confirmed      
## 10  1971     9 North Car… Water        Hepatit… <NA>             Confirmed      
## # … with 57,639 more rows, and 14 more variables: setting <chr>,
## #   illnesses <dbl>, hospitalizations <dbl>, info_on_hospitalizations <dbl>,
## #   deaths <dbl>, info_on_deaths <dbl>, food_vehicle <chr>,
## #   food_contaminated_ingredient <chr>, ifsac_category <chr>,
## #   water_exposure <chr>, water_type <chr>, animal_type <chr>,
## #   animal_type_specify <chr>, water_status <chr>
```

```r
outbreaks %>%
  arrange(desc(year))
```

```
## # A tibble: 57,649 × 21
##     year month state      primary_mode etiology serotype_or_gen… etiology_status
##    <dbl> <dbl> <chr>      <chr>        <chr>    <chr>            <chr>          
##  1  2020     1 Mississip… Person-to-p… <NA>     <NA>             <NA>           
##  2  2020     1 Wisconsin  Person-to-p… Norovir… GII.P16 - GII.4… Confirmed      
##  3  2020     1 Nebraska   Person-to-p… Norovir… GII.P16 - GII.4… Confirmed      
##  4  2020     1 New York   Food         Clostri… <NA>             Suspected      
##  5  2020     1 New Mexico Person-to-p… Norovir… unknown          Confirmed      
##  6  2020     1 Minnesota  Person-to-p… Norovir… <NA>             Suspected      
##  7  2020     1 Minnesota  Person-to-p… Norovir… <NA>             Suspected; Sus…
##  8  2020     1 Minnesota  Person-to-p… Norovir… <NA>             Suspected      
##  9  2020     1 Massachus… Person-to-p… Norovir… <NA>             Suspected      
## 10  2020     1 Massachus… Food         Norovir… <NA>             Suspected      
## # … with 57,639 more rows, and 14 more variables: setting <chr>,
## #   illnesses <dbl>, hospitalizations <dbl>, info_on_hospitalizations <dbl>,
## #   deaths <dbl>, info_on_deaths <dbl>, food_vehicle <chr>,
## #   food_contaminated_ingredient <chr>, ifsac_category <chr>,
## #   water_exposure <chr>, water_type <chr>, animal_type <chr>,
## #   animal_type_specify <chr>, water_status <chr>
```

---

1.2 The `state` variable appears to include US locations -- is the data limited to the 50 states?

```r
outbreaks %>%
  count(state)
```

```
## # A tibble: 58 × 2
##    state                                            n
##    <chr>                                        <int>
##  1 Alabama                                        558
##  2 Alaska                                         217
##  3 Arizona                                       1035
##  4 Arkansas                                       164
##  5 California                                    2844
##  6 Colorado                                      1212
##  7 Commonwealth of the Northern Mariana Islands     1
##  8 Connecticut                                    879
##  9 Delaware                                       134
## 10 Florida                                       2962
## # … with 48 more rows
```

---

1.3 The ifsac category is....relevant when the primary mode of infection is via Food. Filtering on that criterion, can you reproduce the table below?

Can you repro

```r
outbreaks %>%
  filter(primary_mode == "Food") %>% 
  count(ifsac_category)
```

```
## # A tibble: 28 × 2
##    ifsac_category     n
##    <chr>          <int>
##  1 Beef             723
##  2 Chicken          571
##  3 Crustaceans      111
##  4 Dairy            356
##  5 Eggs             197
##  6 Fish            1019
##  7 Fruits           268
##  8 Fungi             45
##  9 Game              36
## 10 Grains-Beans     203
## # … with 18 more rows
```

---

2. What are the different etiologies that have been recorded? Display them in a table ike the one below.

```r
outbreaks %>%
  count(etiology)
```

```
## # A tibble: 679 × 2
##    etiology                                                                    n
##    <chr>                                                                   <int>
##  1 Acanthamoeba unknown                                                        1
##  2 Adenovirus                                                                  3
##  3 Adenovirus B                                                                2
##  4 Adenovirus F; Escherichia coli, Enteroaggregative                           1
##  5 Adenovirus F; Escherichia coli, Enteropathogenic                            1
##  6 Adenovirus F; Escherichia coli, Enteropathogenic; Clostridium difficile     1
##  7 Adenovirus other; Adenovirus                                                1
##  8 Adenovirus unknown                                                          1
##  9 Adenovirus; Clostridium                                                     1
## 10 Adenovirus; Norovirus Genogroup II                                          1
## # … with 669 more rows
```
…
---

6. Which observations lead to the highest number of illnesses? Display them in a table from greatest to fewest illnesses.

```r
outbreaks %>% arrange(desc(illnesses))
```

```
## # A tibble: 57,649 × 21
##     year month state      primary_mode etiology serotype_or_gen… etiology_status
##    <dbl> <dbl> <chr>      <chr>        <chr>    <chr>            <chr>          
##  1  1993     3 Wisconsin  Water        Cryptos… <NA>             Confirmed      
##  2  1987     1 Georgia    Water        Cryptos… <NA>             Confirmed      
##  3  1983     6 Pennsylva… Water        Unknown  <NA>             Suspected      
##  4  1991     8 Puerto Ri… Water        Unknown  <NA>             Suspected      
##  5  1980     6 Texas      Water        Unknown  <NA>             Suspected      
##  6  2007     5 Utah       Water        Cryptos… <NA>             Confirmed      
##  7  1995     7 Georgia    Water        Cryptos… <NA>             Confirmed; Con…
##  8  1978     3 Colorado   Water        Giardia… <NA>             Confirmed      
##  9  1987     9 Multistate Water        Norovir… <NA>             Confirmed      
## 10  1975     8 Pennsylva… Water        Unknown  <NA>             Suspected      
## # … with 57,639 more rows, and 14 more variables: setting <chr>,
## #   illnesses <dbl>, hospitalizations <dbl>, info_on_hospitalizations <dbl>,
## #   deaths <dbl>, info_on_deaths <dbl>, food_vehicle <chr>,
## #   food_contaminated_ingredient <chr>, ifsac_category <chr>,
## #   water_exposure <chr>, water_type <chr>, animal_type <chr>,
## #   animal_type_specify <chr>, water_status <chr>
```
…
---

21. Limit to DC and food-related illnesses --> when was the last time (year / month) that there was an outbreak? Your answer should be a table. 

```r
outbreaks %>% 
  filter(
    state == "Washington DC" & 
    primary_mode == "Food"
    ) %>%
  arrange(desc(year), desc(month))
```

```
## # A tibble: 44 × 21
##     year month state      primary_mode etiology serotype_or_gen… etiology_status
##    <dbl> <dbl> <chr>      <chr>        <chr>    <chr>            <chr>          
##  1  2019     6 Washingto… Food         Cyclosp… <NA>             Confirmed      
##  2  2019     5 Washingto… Food         Norovir… unknown - unkno… Suspected      
##  3  2019     3 Washingto… Food         <NA>     <NA>             <NA>           
##  4  2018     9 Washingto… Food         <NA>     <NA>             <NA>           
##  5  2018     3 Washingto… Food         Norovir… unknown - unkno… Confirmed      
##  6  2018     3 Washingto… Food         Norovir… <NA>             Suspected      
##  7  2018     3 Washingto… Food         Norovir… <NA>             Suspected      
##  8  2017    12 Washingto… Food         Norovir… unknown - unkno… Confirmed      
##  9  2016     2 Washingto… Food         <NA>     <NA>             <NA>           
## 10  2015     9 Washingto… Food         Salmone… Enteritidis      Confirmed      
## # … with 34 more rows, and 14 more variables: setting <chr>, illnesses <dbl>,
## #   hospitalizations <dbl>, info_on_hospitalizations <dbl>, deaths <dbl>,
## #   info_on_deaths <dbl>, food_vehicle <chr>,
## #   food_contaminated_ingredient <chr>, ifsac_category <chr>,
## #   water_exposure <chr>, water_type <chr>, animal_type <chr>,
## #   animal_type_specify <chr>, water_status <chr>
```
…
30. Harder filter() + select()

Find food-related outbreaks that resulted in at least 1 death, and show the columns from `year` to `deaths`

```r
outbreaks %>% 
  filter(
    primary_mode == "Food", 
    deaths >= 1
  )
```

```
## # A tibble: 265 × 21
##     year month state      primary_mode etiology serotype_or_gen… etiology_status
##    <dbl> <dbl> <chr>      <chr>        <chr>    <chr>            <chr>          
##  1  2009     7 Michigan   Food         Salmone… Newport          Confirmed      
##  2  2009     5 West Virg… Food         Salmone… Enteritidis      Confirmed      
##  3  2010     2 Illinois   Food         Shigell… <NA>             Confirmed      
##  4  2010     5 Louisiana  Food         Clostri… <NA>             Confirmed      
##  5  2010     6 New York   Food         Escheri… O157:H7          Confirmed      
##  6  2010    10 Colorado   Food         Norovir… <NA>             Confirmed      
##  7  2011     3 Rhode Isl… Food         Salmone… Heidelberg       Confirmed      
##  8  2009     2 Multistate Food         Salmone… Carrau           Confirmed      
##  9  2009     8 Multistate Food         Escheri… O157:H7          Confirmed      
## 10  2010     1 Texas      Food         Listeri… <NA>             Confirmed      
## # … with 255 more rows, and 14 more variables: setting <chr>, illnesses <dbl>,
## #   hospitalizations <dbl>, info_on_hospitalizations <dbl>, deaths <dbl>,
## #   info_on_deaths <dbl>, food_vehicle <chr>,
## #   food_contaminated_ingredient <chr>, ifsac_category <chr>,
## #   water_exposure <chr>, water_type <chr>, animal_type <chr>,
## #   animal_type_specify <chr>, water_status <chr>
```
…
---

Y. Find DC's worst outbreak according to the outbreak's hospitalization rate. your answer should be a tibble with the highest hospitalization rates shown at the top. Any ties should be broken by outbreaks that happened more recently.

```r
outbreaks %>% 
  filter(state == "Washington DC") %>% 
  mutate(
    hosp_rate = hospitalizations/illnesses*100
  ) %>%
  arrange(desc(hosp_rate), desc(year))
```

```
## # A tibble: 99 × 22
##     year month state      primary_mode etiology serotype_or_gen… etiology_status
##    <dbl> <dbl> <chr>      <chr>        <chr>    <chr>            <chr>          
##  1  2019     3 Washingto… Environment… Norovir… unknown - unkno… Confirmed      
##  2  2015     3 Washingto… Environment… Norovir… <NA>             Confirmed      
##  3  2014     2 Washingto… Indetermina… Norovir… unknown          Suspected      
##  4  2009     2 Washingto… Indetermina… <NA>     <NA>             <NA>           
##  5  2010    12 Washingto… Person-to-p… Norovir… <NA>             Suspected      
##  6  2019     7 Washingto… Indetermina… Norovir… <NA>             Suspected      
##  7  2014     2 Washingto… Indetermina… Norovir… unknown          Confirmed      
##  8  2002    10 Washingto… Food         Salmone… <NA>             Confirmed; Con…
##  9  2009     3 Washingto… Indetermina… <NA>     <NA>             <NA>           
## 10  2010    12 Washingto… Person-to-p… Norovir… <NA>             Suspected      
## # … with 89 more rows, and 15 more variables: setting <chr>, illnesses <dbl>,
## #   hospitalizations <dbl>, info_on_hospitalizations <dbl>, deaths <dbl>,
## #   info_on_deaths <dbl>, food_vehicle <chr>,
## #   food_contaminated_ingredient <chr>, ifsac_category <chr>,
## #   water_exposure <chr>, water_type <chr>, animal_type <chr>,
## #   animal_type_specify <chr>, water_status <chr>, hosp_rate <dbl>
```
…
