Lightning talk • stringr
…
stringr provides a cohesive set of functions that make working with character data in R as easy as possible. *Most* any task you can think of that involves character data can be accomplished with stringr.

It's part of the core tidyverse, along with packages like dplyr and ggplot2, so stringr functions play really nicely with dplyr functions like `filter()` and `mutate()`.

Let's look at a concrete example.

---

class: middle

# `breed_traits` dataset

```
## # A tibble: 195 × 15
##    breed  affec…¹ shedd…² drool…³ openn…⁴ playf…⁵ prote…⁶ adapt…⁷ train…⁸ energy
##    <chr>    <dbl>   <dbl>   <dbl>   <dbl>   <dbl>   <dbl>   <dbl>   <dbl>  <dbl>
##  1 Retri…       5       4       2       5       5       3       5       5      5
##  2 Frenc…       5       3       3       5       5       3       5       4      3
##  3 Germa…       5       4       2       3       4       5       5       5      5
##  4 Retri…       5       4       2       5       4       3       5       5      3
##  5 Bulld…       4       3       3       4       4       3       3       4      3
##  6 Poodl…       5       1       1       5       5       5       4       5      4
##  7 Beagl…       3       3       1       3       4       2       4       3      4
##  8 Rottw…       5       3       3       3       4       5       4       5      3
##  9 Point…       5       3       2       4       4       4       4       5      5
## 10 Dachs…       5       2       2       4       4       4       4       4      3
## # … with 185 more rows, 5 more variables: barking <dbl>,
## #   stimulation_needs <dbl>, good_w_children <dbl>, good_w_other_dogs <dbl>,
## #   grooming_freq <dbl>, and abbreviated variable names ¹​affection, ²​shedding,
## #   ³​drooling, ⁴​openness, ⁵​playfulness, ⁶​protectiveness, ⁷​adaptability,
## #   ⁸​trainability
## # ℹ Use `print(n = ...)` to see more rows, and `colnames()` to see all variable names
```
…
That's where stringr comes in.

---

class: middle

# Filtering with `str_detect()`

```r
breed_traits %>% 
  filter(str_detect(breed, "Terrier"))
```

```
## # A tibble: 36 × 15
##    breed  affec…¹ shedd…² drool…³ openn…⁴ playf…⁵ prote…⁶ adapt…⁷ train…⁸ energy
##    <chr>    <dbl>   <dbl>   <dbl>   <dbl>   <dbl>   <dbl>   <dbl>   <dbl>  <dbl>
##  1 Yorks…       5       1       1       5       4       5       5       4      4
##  2 Bosto…       5       2       1       5       5       3       3       4      4
##  3 West …       5       3       1       4       5       5       4       3      4
##  4 Scott…       5       2       2       3       4       5       4       3      3
##  5 Soft …       5       1       2       3       3       3       3       3      4
##  6 Aired…       3       1       1       3       3       5       3       3      3
##  7 Bull …       4       3       1       4       4       3       3       3      4
##  8 Russe…       5       3       1       5       5       4       4       3      5
##  9 Cairn…       4       2       1       3       4       4       3       3      3
## 10 Staff…       5       2       3       4       4       5       5       5      4
## # … with 26 more rows, 5 more variables: barking <dbl>,
## #   stimulation_needs <dbl>, good_w_children <dbl>, good_w_other_dogs <dbl>,
## #   grooming_freq <dbl>, and abbreviated variable names ¹​affection, ²​shedding,
## #   ³​drooling, ⁴​openness, ⁵​playfulness, ⁶​protectiveness, ⁷​adaptability,
## #   ⁸​trainability
## # ℹ Use `print(n = ...)` to see more rows, and `colnames()` to see all variable names
```
…
